<?xml version="1.0" standalone="no"?>
<!DOCTYPE svg PUBLIC "-//W3C//DTD SVG 20010904//EN"
 "http://www.w3.org/TR/2001/REC-SVG-20010904/DTD/svg10.dtd">
<svg version="1.0" xmlns="http://www.w3.org/2000/svg"
 width="500.000000pt" height="500.000000pt" viewBox="0 0 500.000000 500.000000"
 preserveAspectRatio="xMidYMid meet">
<metadata>
Created by potrace 1.14, written by Peter Selinger 2001-2017
</metadata>
<g transform="translate(0.000000,500.000000) scale(0.100000,-0.100000)"
fill="#000000" stroke="none">
<path d="M2310 4443 c-84 -8 -306 -56 -411 -89 -208 -65 -469 -208 -633 -347
-388 -327 -621 -753 -691 -1262 -14 -98 -14 -424 0 -505 76 -455 253 -809 555
-1110 310 -309 686 -495 1125 -554 140 -19 432 -15 560 9 496 90 902 327 1203
704 158 198 283 442 352 689 68 239 90 482 65 712 -28 255 -89 467 -196 684
-326 658 -1006 1077 -1739 1073 -85 -1 -171 -2 -190 -4z m-85 -365 c28 -13 55
-55 55 -86 0 -31 -44 -70 -91 -81 -377 -92 -667 -294 -881 -613 -95 -141 -181
-355 -214 -533 -22 -123 -27 -354 -8 -481 17 -118 10 -148 -37 -168 -32 -14
-92 -7 -111 12 -22 22 -52 252 -52 392 4 466 206 901 558 1199 226 192 432
293 753 371 1 0 14 -5 28 -12z m73 -334 c27 -8 53 -53 47 -84 -7 -37 -34 -69
-63 -76 -306 -66 -578 -265 -735 -536 -53 -92 -115 -289 -132 -423 -10 -76 -7
-256 5 -295 28 -96 -19 -170 -100 -154 -42 9 -58 36 -76 135 -15 82 -21 318
-9 369 3 14 7 40 10 59 22 167 126 388 261 558 153 192 390 352 628 424 94 29
125 33 164 23z m569 -771 c26 -20 52 -41 56 -47 15 -20 -7 -178 -30 -220 -8
-15 -13 -12 -35 22 -28 42 -106 122 -120 122 -15 0 -9 23 24 92 17 38 37 68
44 68 7 0 34 -16 61 -37z m-177 -295 c54 -58 85 -181 58 -232 -26 -49 -150
-127 -226 -142 l-33 -7 22 59 c12 33 25 64 30 69 4 6 24 52 43 102 35 93 73
173 81 173 2 0 14 -10 25 -22z m1399 -52 c22 -23 23 -33 23 -143 0 -417 -164
-805 -472 -1114 -143 -144 -331 -280 -405 -293 -32 -6 -80 15 -89 39 -8 23 -7
77 2 92 4 7 48 38 97 68 50 31 109 71 133 88 67 49 209 194 267 272 63 83 155
242 155 266 0 10 3 19 8 21 11 5 62 152 88 257 30 121 41 218 43 374 1 73 22
97 84 97 33 0 49 -6 66 -24z m-339 -98 c18 -20 21 -34 19 -106 -7 -290 -143
-588 -373 -817 -112 -111 -196 -174 -245 -181 -65 -11 -118 84 -73 134 9 10
46 41 82 68 183 137 315 323 385 543 30 93 42 148 50 226 10 105 15 124 38
140 33 23 92 19 117 -7z m-1354 -605 c-7 -7 -26 7 -26 19 0 6 6 6 15 -2 9 -7
13 -15 11 -17z"/>
</g>
</svg>
